{
  "items": [
    {
      "external_urls": {
        "spotify": "https://open.spotify.com/artist/3IunaFjvNKj98JW89JYv9u"
      },
      "followers": {
        "href": null,
        "total": 459899
      },
      "genres": [
        "electropop",
        "indie pop",
        "indie poptimism",
        "indietronica",
        "modern dream pop",
        "vapor soul"
      ],
      "href": "https://api.spotify.com/v1/artists/3IunaFjvNKj98JW89JYv9u",
      "id": "3IunaFjvNKj98JW89JYv9u",
      "images": [
        {
          "height": 640,
          "url": "https://i.scdn.co/image/848b92c2487efb37ba4c75bc25a242c7b2785440",
          "width": 640
        },
        {
          "height": 320,
          "url": "https://i.scdn.co/image/a005f5855f1c4a0dbd37881b54c8e622ac163583",
          "width": 320
        },
        {
          "height": 160,
          "url": "https://i.scdn.co/image/c5f2f549524e66b5d3792419bc894257ae72b67c",
          "width": 160
        }
      ],
      "name": "The Japanese House",
      "popularity": 65,
      "type": "artist",
      "uri": "spotify:artist:3IunaFjvNKj98JW89JYv9u"
    },
    {
      "external_urls": {
        "spotify": "https://open.spotify.com/artist/4gzpq5DPGxSnKTe4SA8HAU"
      },
      "followers": {
        "href": null,
        "total": 29604326
      },
      "genres": [
        "permanent wave",
        "pop"
      ],
      "href": "https://api.spotify.com/v1/artists/4gzpq5DPGxSnKTe4SA8HAU",
      "id": "4gzpq5DPGxSnKTe4SA8HAU",
      "images": [
        {
          "height": 640,
          "url": "https://i.scdn.co/image/4ffd6710617d289699cc0df60cf975e316025119",
          "width": 640
        },
        {
          "height": 320,
          "url": "https://i.scdn.co/image/6397b6a29c8d9081412e09feb53600f8c9a18313",
          "width": 320
        },
        {
          "height": 160,
          "url": "https://i.scdn.co/image/73a21de115738931d6c7760408ed367812b55ccd",
          "width": 160
        }
      ],
      "name": "Coldplay",
      "popularity": 89,
      "type": "artist",
      "uri": "spotify:artist:4gzpq5DPGxSnKTe4SA8HAU"
    },
    {
      "external_urls": {
        "spotify": "https://open.spotify.com/artist/63MQldklfxkjYDoUE4Tppz"
      },
      "followers": {
        "href": null,
        "total": 1880117
      },
      "genres": [
        "french shoegaze",
        "french synthpop",
        "indietronica",
        "metropopolis",
        "neo-synthpop"
      ],
      "href": "https://api.spotify.com/v1/artists/63MQldklfxkjYDoUE4Tppz",
      "id": "63MQldklfxkjYDoUE4Tppz",
      "images": [
        {
          "height": 640,
          "url": "https://i.scdn.co/image/ad6186e7279ea9609926e92c05688cf89312ae4e",
          "width": 640
        },
        {
          "height": 320,
          "url": "https://i.scdn.co/image/cb6f1c1fa5fa6351cd082f5469090dd635b64ae2",
          "width": 320
        },
        {
          "height": 160,
          "url": "https://i.scdn.co/image/415d9c9ed43df95f53f8ca48e0f69b24cfc5dca2",
          "width": 160
        }
      ],
      "name": "M83",
      "popularity": 73,
      "type": "artist",
      "uri": "spotify:artist:63MQldklfxkjYDoUE4Tppz"
    },
    {
      "external_urls": {
        "spotify": "https://open.spotify.com/artist/3dz0NnIZhtKKeXZxLOxCam"
      },
      "followers": {
        "href": null,
        "total": 874580
      },
      "genres": [
        "brostep",
        "complextro",
        "edm",
        "electro house",
        "moombahton",
        "pop dance",
        "progressive electro house"
      ],
      "href": "https://api.spotify.com/v1/artists/3dz0NnIZhtKKeXZxLOxCam",
      "id": "3dz0NnIZhtKKeXZxLOxCam",
      "images": [
        {
          "height": 640,
          "url": "https://i.scdn.co/image/efe8eaa8aae32d3ee4948bb59fd044742b4bf4bb",
          "width": 640
        },
        {
          "height": 320,
          "url": "https://i.scdn.co/image/3c172c3810cd65ad204ffe07e7983e48e929f229",
          "width": 320
        },
        {
          "height": 160,
          "url": "https://i.scdn.co/image/acc9781b4b49e083a432a3f305a16543b3eedf7f",
          "width": 160
        }
      ],
      "name": "Porter Robinson",
      "popularity": 68,
      "type": "artist",
      "uri": "spotify:artist:3dz0NnIZhtKKeXZxLOxCam"
    },
    {
      "external_urls": {
        "spotify": "https://open.spotify.com/artist/0jNDKefhfSbLR9sFvcPLHo"
      },
      "followers": {
        "href": null,
        "total": 620191
      },
      "genres": [
        "edm",
        "electro house",
        "electronic trap",
        "electropop",
        "future bass",
        "pop dance",
        "pop edm",
        "vapor twitch"
      ],
      "href": "https://api.spotify.com/v1/artists/0jNDKefhfSbLR9sFvcPLHo",
      "id": "0jNDKefhfSbLR9sFvcPLHo",
      "images": [
        {
          "height": 640,
          "url": "https://i.scdn.co/image/65ac17c15f49dbd226f321e986a874471df303da",
          "width": 640
        },
        {
          "height": 320,
          "url": "https://i.scdn.co/image/250f36133e876c3c9d9fdb18cfc65abcb5181517",
          "width": 320
        },
        {
          "height": 160,
          "url": "https://i.scdn.co/image/05fdbc52f91c2038e3c29d1995347d1b29cf7d70",
          "width": 160
        }
      ],
      "name": "San Holo",
      "popularity": 66,
      "type": "artist",
      "uri": "spotify:artist:0jNDKefhfSbLR9sFvcPLHo"
    },
    {
      "external_urls": {
        "spotify": "https://open.spotify.com/artist/7wg1qvie3KqDNQbAkTdbX0"
      },
      "followers": {
        "href": null,
        "total": 404261
      },
      "genres": [
        "edm",
        "electropop",
        "indie poptimism",
        "pop",
        "tropical house"
      ],
      "href": "https://api.spotify.com/v1/artists/7wg1qvie3KqDNQbAkTdbX0",
      "id": "7wg1qvie3KqDNQbAkTdbX0",
      "images": [
        {
          "height": 640,
          "url": "https://i.scdn.co/image/f847a408460d6f4f4b6c8416df55bae7f687accb",
          "width": 640
        },
        {
          "height": 320,
          "url": "https://i.scdn.co/image/efa025d2eabf9ff1613117f8a2de31ee5447b7fa",
          "width": 320
        },
        {
          "height": 160,
          "url": "https://i.scdn.co/image/87af897f01efcfc75331e6ee812a9822e03b0881",
          "width": 160
        }
      ],
      "name": "Louis The Child",
      "popularity": 73,
      "type": "artist",
      "uri": "spotify:artist:7wg1qvie3KqDNQbAkTdbX0"
    },
    {
      "external_urls": {
        "spotify": "https://open.spotify.com/artist/1btWGBz4Uu1HozTwb2Lm8A"
      },
      "followers": {
        "href": null,
        "total": 445295
      },
      "genres": [
        "indie pop",
        "indie poptimism",
        "indie rock",
        "minneapolis indie",
        "modern alternative rock",
        "modern rock"
      ],
      "href": "https://api.spotify.com/v1/artists/1btWGBz4Uu1HozTwb2Lm8A",
      "id": "1btWGBz4Uu1HozTwb2Lm8A",
      "images": [
        {
          "height": 640,
          "url": "https://i.scdn.co/image/8566896482ed0a0e3c0bd4503ca3ae0c1950f019",
          "width": 640
        },
        {
          "height": 320,
          "url": "https://i.scdn.co/image/777433ea9f3d9aa3cf600d67655a16f41cc10fdf",
          "width": 320
        },
        {
          "height": 160,
          "url": "https://i.scdn.co/image/536155e4c4a744137e218e638d32c87ceb5e3679",
          "width": 160
        }
      ],
      "name": "Hippo Campus",
      "popularity": 68,
      "type": "artist",
      "uri": "spotify:artist:1btWGBz4Uu1HozTwb2Lm8A"
    },
    {
      "external_urls": {
        "spotify": "https://open.spotify.com/artist/677sHrkjhB7IP4YwjzZyc4"
      },
      "followers": {
        "href": null,
        "total": 128274
      },
      "genres": [
        "australian indie"
      ],
      "href": "https://api.spotify.com/v1/artists/677sHrkjhB7IP4YwjzZyc4",
      "id": "677sHrkjhB7IP4YwjzZyc4",
      "images": [
        {
          "height": 640,
          "url": "https://i.scdn.co/image/4ea725e85491646c3a050f0d6c9439cc2048bd38",
          "width": 640
        },
        {
          "height": 320,
          "url": "https://i.scdn.co/image/0173fdd0f88737b89bbba978afb46bf0fba73476",
          "width": 320
        },
        {
          "height": 160,
          "url": "https://i.scdn.co/image/873de24f5cd08c631f3f032d7cc42625aec0349e",
          "width": 160
        }
      ],
      "name": "Last Dinosaurs",
      "popularity": 55,
      "type": "artist",
      "uri": "spotify:artist:677sHrkjhB7IP4YwjzZyc4"
    },
    {
      "external_urls": {
        "spotify": "https://open.spotify.com/artist/4pb4rqWSoGUgxm63xmJ8xc"
      },
      "followers": {
        "href": null,
        "total": 567160
      },
      "genres": [
        "complextro",
        "edm",
        "electro house",
        "electropop",
        "filter house",
        "future bass",
        "nantes indie",
        "pop dance"
      ],
      "href": "https://api.spotify.com/v1/artists/4pb4rqWSoGUgxm63xmJ8xc",
      "id": "4pb4rqWSoGUgxm63xmJ8xc",
      "images": [
        {
          "height": 640,
          "url": "https://i.scdn.co/image/426e0d784cfc0dfe8f3275e32850223232835c14",
          "width": 640
        },
        {
          "height": 320,
          "url": "https://i.scdn.co/image/d12113789d3953523b7b2c2f0ef53871605fed1c",
          "width": 320
        },
        {
          "height": 160,
          "url": "https://i.scdn.co/image/3f4c99a2932c2e21fc966123050cd92fe4ff0c15",
          "width": 160
        }
      ],
      "name": "Madeon",
      "popularity": 64,
      "type": "artist",
      "uri": "spotify:artist:4pb4rqWSoGUgxm63xmJ8xc"
    },
    {
      "external_urls": {
        "spotify": "https://open.spotify.com/artist/1QAJqy2dA3ihHBFIHRphZj"
      },
      "followers": {
        "href": null,
        "total": 2206527
      },
      "genres": [
        "ambient pop",
        "dream pop",
        "el paso indie",
        "shoegaze"
      ],
      "href": "https://api.spotify.com/v1/artists/1QAJqy2dA3ihHBFIHRphZj",
      "id": "1QAJqy2dA3ihHBFIHRphZj",
      "images": [
        {
          "height": 640,
          "url": "https://i.scdn.co/image/074a07d0cbf2a30290b5b55b152952e3c7011341",
          "width": 640
        },
        {
          "height": 320,
          "url": "https://i.scdn.co/image/d34e8cb22455b5d6f49fdeefa7263a2954a9909b",
          "width": 320
        },
        {
          "height": 160,
          "url": "https://i.scdn.co/image/d6674301d1a4ab5fa3ad566bc9a65c54a1564e68",
          "width": 160
        }
      ],
      "name": "Cigarettes After Sex",
      "popularity": 77,
      "type": "artist",
      "uri": "spotify:artist:1QAJqy2dA3ihHBFIHRphZj"
    },
    {
      "external_urls": {
        "spotify": "https://open.spotify.com/artist/536BYVgOnRky0xjsPT96zl"
      },
      "followers": {
        "href": null,
        "total": 2010159
      },
      "genres": [
        "alternative dance",
        "indie rock",
        "indietronica",
        "irish rock",
        "modern alternative rock",
        "modern rock",
        "northern irish indie",
        "rock"
      ],
      "href": "https://api.spotify.com/v1/artists/536BYVgOnRky0xjsPT96zl",
      "id": "536BYVgOnRky0xjsPT96zl",
      "images": [
        {
          "height": 640,
          "url": "https://i.scdn.co/image/cf4b5c4129059163149e43ea3466557e8e05642f",
          "width": 640
        },
        {
          "height": 320,
          "url": "https://i.scdn.co/image/df9bb5d891969f8b40cb8dc9cdceff8b3903f5a7",
          "width": 320
        },
        {
          "height": 160,
          "url": "https://i.scdn.co/image/9c481839eb1f7848a985913885e64427b8432a10",
          "width": 160
        }
      ],
      "name": "Two Door Cinema Club",
      "popularity": 72,
      "type": "artist",
      "uri": "spotify:artist:536BYVgOnRky0xjsPT96zl"
    },
    {
      "external_urls": {
        "spotify": "https://open.spotify.com/artist/28Ky95tmlHktB96DBUoB0g"
      },
      "followers": {
        "href": null,
        "total": 200530
      },
      "genres": [
        "brostep",
        "chillstep",
        "edm",
        "electro house",
        "gaming edm"
      ],
      "href": "https://api.spotify.com/v1/artists/28Ky95tmlHktB96DBUoB0g",
      "id": "28Ky95tmlHktB96DBUoB0g",
      "images": [
        {
          "height": 640,
          "url": "https://i.scdn.co/image/1c723bf56629dfabacb47eaaa9d635b677e18477",
          "width": 640
        },
        {
          "height": 320,
          "url": "https://i.scdn.co/image/e33168d8b1a95822d2ca67e59b0149d4e7f8bd09",
          "width": 320
        },
        {
          "height": 160,
          "url": "https://i.scdn.co/image/e4c860f658ea7405b026703c9ded08149a0142c4",
          "width": 160
        }
      ],
      "name": "Tristam",
      "popularity": 60,
      "type": "artist",
      "uri": "spotify:artist:28Ky95tmlHktB96DBUoB0g"
    },
    {
      "external_urls": {
        "spotify": "https://open.spotify.com/artist/53XhwfbYqKCa1cC15pYq2q"
      },
      "followers": {
        "href": null,
        "total": 33466738
      },
      "genres": [
        "modern rock",
        "rock"
      ],
      "href": "https://api.spotify.com/v1/artists/53XhwfbYqKCa1cC15pYq2q",
      "id": "53XhwfbYqKCa1cC15pYq2q",
      "images": [
        {
          "height": 640,
          "url": "https://i.scdn.co/image/949d57988ca389b49133ebd6f8f99ef96fb52ab8",
          "width": 640
        },
        {
          "height": 320,
          "url": "https://i.scdn.co/image/eeabcdcf1182bb2d5d4f5ebca06e0f1a9fdb07e6",
          "width": 320
        },
        {
          "height": 160,
          "url": "https://i.scdn.co/image/c388ab0de4663d7c0e7c433bd8f926819255d922",
          "width": 160
        }
      ],
      "name": "Imagine Dragons",
      "popularity": 90,
      "type": "artist",
      "uri": "spotify:artist:53XhwfbYqKCa1cC15pYq2q"
    },
    {
      "external_urls": {
        "spotify": "https://open.spotify.com/artist/4tZwfgrHOc3mvqYlEYSvVi"
      },
      "followers": {
        "href": null,
        "total": 7588332
      },
      "genres": [
        "electro",
        "filter house"
      ],
      "href": "https://api.spotify.com/v1/artists/4tZwfgrHOc3mvqYlEYSvVi",
      "id": "4tZwfgrHOc3mvqYlEYSvVi",
      "images": [
        {
          "height": 640,
          "url": "https://i.scdn.co/image/b8aaf4b179bb0a52f29a810fdb0f9d5c16ec2c75",
          "width": 640
        },
        {
          "height": 320,
          "url": "https://i.scdn.co/image/8e189c820ba32ffd332393eb60cb1def63bed070",
          "width": 320
        },
        {
          "height": 160,
          "url": "https://i.scdn.co/image/70bedd072be9725a0b05e07e3338959e826e7dd7",
          "width": 160
        }
      ],
      "name": "Daft Punk",
      "popularity": 87,
      "type": "artist",
      "uri": "spotify:artist:4tZwfgrHOc3mvqYlEYSvVi"
    },
    {
      "external_urls": {
        "spotify": "https://open.spotify.com/artist/6GAoXkyadLFOLLkZrHWlOR"
      },
      "followers": {
        "href": null,
        "total": 14240
      },
      "genres": [
        "instrumental math rock",
        "pinoy indie",
        "southeast asian post-rock"
      ],
      "href": "https://api.spotify.com/v1/artists/6GAoXkyadLFOLLkZrHWlOR",
      "id": "6GAoXkyadLFOLLkZrHWlOR",
      "images": [
        {
          "height": 640,
          "url": "https://i.scdn.co/image/520dff9c7be399064245328a8d355327010c20d3",
          "width": 640
        },
        {
          "height": 320,
          "url": "https://i.scdn.co/image/241ca76af4ed9f9a9db5ac06790d6fbc0c1c9a08",
          "width": 320
        },
        {
          "height": 160,
          "url": "https://i.scdn.co/image/0a1d140033c581da74053d454846f367ba145624",
          "width": 160
        }
      ],
      "name": "tide/edit",
      "popularity": 29,
      "type": "artist",
      "uri": "spotify:artist:6GAoXkyadLFOLLkZrHWlOR"
    },
    {
      "external_urls": {
        "spotify": "https://open.spotify.com/artist/5NtMqQLCzdVvL7F8vFp3zM"
      },
      "followers": {
        "href": null,
        "total": 54159
      },
      "genres": [
        "alternative rock",
        "art pop",
        "dream pop",
        "freak folk",
        "hyperpop",
        "nu gaze",
        "shoegaze",
        "vaporwave"
      ],
      "href": "https://api.spotify.com/v1/artists/5NtMqQLCzdVvL7F8vFp3zM",
      "id": "5NtMqQLCzdVvL7F8vFp3zM",
      "images": [
        {
          "height": 640,
          "url": "https://i.scdn.co/image/ab67616d0000b2732aa34d5906e01231eff70f82",
          "width": 640
        },
        {
          "height": 300,
          "url": "https://i.scdn.co/image/ab67616d00001e022aa34d5906e01231eff70f82",
          "width": 300
        },
        {
          "height": 64,
          "url": "https://i.scdn.co/image/ab67616d000048512aa34d5906e01231eff70f82",
          "width": 64
        }
      ],
      "name": "Sweet Trip",
      "popularity": 55,
      "type": "artist",
      "uri": "spotify:artist:5NtMqQLCzdVvL7F8vFp3zM"
    },
    {
      "external_urls": {
        "spotify": "https://open.spotify.com/artist/2uDsUIyCIqk9wKj17I8WAH"
      },
      "followers": {
        "href": null,
        "total": 52265
      },
      "genres": [
        "anime score",
        "chiptune",
        "japanese vgm",
        "video game music"
      ],
      "href": "https://api.spotify.com/v1/artists/2uDsUIyCIqk9wKj17I8WAH",
      "id": "2uDsUIyCIqk9wKj17I8WAH",
      "images": [
        {
          "height": 640,
          "url": "https://i.scdn.co/image/ab67616d0000b273793e0fabd5474507ee081532",
          "width": 640
        },
        {
          "height": 300,
          "url": "https://i.scdn.co/image/ab67616d00001e02793e0fabd5474507ee081532",
          "width": 300
        },
        {
          "height": 64,
          "url": "https://i.scdn.co/image/ab67616d00004851793e0fabd5474507ee081532",
          "width": 64
        }
      ],
      "name": "Yoko Shimomura",
      "popularity": 57,
      "type": "artist",
      "uri": "spotify:artist:2uDsUIyCIqk9wKj17I8WAH"
    },
    {
      "external_urls": {
        "spotify": "https://open.spotify.com/artist/32zeX1IoVKAGWMyy1isKUq"
      },
      "followers": {
        "href": null,
        "total": 265002
      },
      "genres": [
        "indie garage rock",
        "indie pop",
        "indie surf"
      ],
      "href": "https://api.spotify.com/v1/artists/32zeX1IoVKAGWMyy1isKUq",
      "id": "32zeX1IoVKAGWMyy1isKUq",
      "images": [
        {
          "height": 640,
          "url": "https://i.scdn.co/image/bb43ca0cc9c74530f2373b54d2d411ade982efc4",
          "width": 640
        },
        {
          "height": 320,
          "url": "https://i.scdn.co/image/fb18bd3ed65d592f63278066bf88f3d0ee839872",
          "width": 320
        },
        {
          "height": 160,
          "url": "https://i.scdn.co/image/2a2aa44b7155049d1817fb37a1db6a60effb8af2",
          "width": 160
        }
      ],
      "name": "No Vacation",
      "popularity": 60,
      "type": "artist",
      "uri": "spotify:artist:32zeX1IoVKAGWMyy1isKUq"
    },
    {
      "external_urls": {
        "spotify": "https://open.spotify.com/artist/1WOhabhnnH1k6KcD81xGD1"
      },
      "followers": {
        "href": null,
        "total": 26361
      },
      "genres": [
        "american shoegaze",
        "dream pop",
        "dreamgaze",
        "indie shoegaze",
        "nu gaze",
        "shoegaze"
      ],
      "href": "https://api.spotify.com/v1/artists/1WOhabhnnH1k6KcD81xGD1",
      "id": "1WOhabhnnH1k6KcD81xGD1",
      "images": [
        {
          "height": 1000,
          "url": "https://i.scdn.co/image/cb1acf44fe3826353500e2a2e5adaf66758f7b38",
          "width": 1000
        },
        {
          "height": 640,
          "url": "https://i.scdn.co/image/472e5db7b6de84d150c1aabcf65f7c76c81cc75d",
          "width": 640
        },
        {
          "height": 200,
          "url": "https://i.scdn.co/image/5258d81e2481f95443f73d9b8cfb1a8ac32de615",
          "width": 200
        },
        {
          "height": 64,
          "url": "https://i.scdn.co/image/e1ce469b4e34992acf56358fa3cd471b9fda9820",
          "width": 64
        }
      ],
      "name": "Airiel",
      "popularity": 41,
      "type": "artist",
      "uri": "spotify:artist:1WOhabhnnH1k6KcD81xGD1"
    },
    {
      "external_urls": {
        "spotify": "https://open.spotify.com/artist/0MeLMJJcouYXCymQSHPn8g"
      },
      "followers": {
        "href": null,
        "total": 1058193
      },
      "genres": [
        "ambient worship",
        "chamber pop",
        "dreamo",
        "indie cafe pop",
        "pop"
      ],
      "href": "https://api.spotify.com/v1/artists/0MeLMJJcouYXCymQSHPn8g",
      "id": "0MeLMJJcouYXCymQSHPn8g",
      "images": [
        {
          "height": 640,
          "url": "https://i.scdn.co/image/3be0a187bf6b62b347cb7dd2578b0e4880ba05cd",
          "width": 640
        },
        {
          "height": 320,
          "url": "https://i.scdn.co/image/79c3960bf7652d088dd840b1071b7ae504b35ec7",
          "width": 320
        },
        {
          "height": 160,
          "url": "https://i.scdn.co/image/31b4008bbde5a35e757c4488cb2dbd5a43630b9c",
          "width": 160
        }
      ],
      "name": "Sleeping At Last",
      "popularity": 76,
      "type": "artist",
      "uri": "spotify:artist:0MeLMJJcouYXCymQSHPn8g"
    }
  ],
  "total": 50,
  "limit": 20,
  "offset": 0,
  "previous": null,
  "href": "https://api.spotify.com/v1/me/top/artists",
  "next": "https://api.spotify.com/v1/me/top/artists?limit=20&offset=20"
}